^C:\USERS\CJ_YAP\SOURCE\REPOS\PROJECT13\PROJECT13\POKEMON.CPP
/c /ZI /JMC /nologo /W3 /WX- /diagnostics:classic /sdl /Od /Oy- /D _MBCS /Gm- /EHsc /RTC1 /MDd /GS /fp:precise /permissive- /Zc:wchar_t /Zc:forScope /Zc:inline /Fo"DEBUG\\" /Fd"DEBUG\VC141.PDB" /Gd /TP /analyze- /FC C:\USERS\CJ_YAP\SOURCE\REPOS\PROJECT13\PROJECT13\POKEMON.CPP
^C:\USERS\CJ_YAP\SOURCE\REPOS\PROJECT13\PROJECT13\POKEMONCOLLECTION.CPP
/c /ZI /JMC /nologo /W3 /WX- /diagnostics:classic /sdl /Od /Oy- /D _MBCS /Gm- /EHsc /RTC1 /MDd /GS /fp:precise /permissive- /Zc:wchar_t /Zc:forScope /Zc:inline /Fo"DEBUG\\" /Fd"DEBUG\VC141.PDB" /Gd /TP /analyze- /FC C:\USERS\CJ_YAP\SOURCE\REPOS\PROJECT13\PROJECT13\POKEMONCOLLECTION.CPP
^C:\USERS\CJ_YAP\SOURCE\REPOS\PROJECT13\PROJECT13\FINALS_YAP.CPP
/c /ZI /JMC /nologo /W3 /WX- /diagnostics:classic /sdl /Od /Oy- /D _MBCS /Gm- /EHsc /RTC1 /MDd /GS /fp:precise /permissive- /Zc:wchar_t /Zc:forScope /Zc:inline /Fo"DEBUG\\" /Fd"DEBUG\VC141.PDB" /Gd /TP /analyze- /FC C:\USERS\CJ_YAP\SOURCE\REPOS\PROJECT13\PROJECT13\FINALS_YAP.CPP
^C:\USERS\CJ_YAP\SOURCE\REPOS\PROJECT13\PROJECT13\TRAINER.CPP
/c /ZI /JMC /nologo /W3 /WX- /diagnostics:classic /sdl /Od /Oy- /D _MBCS /Gm- /EHsc /RTC1 /MDd /GS /fp:precise /permissive- /Zc:wchar_t /Zc:forScope /Zc:inline /Fo"DEBUG\\" /Fd"DEBUG\VC141.PDB" /Gd /TP /analyze- /FC C:\USERS\CJ_YAP\SOURCE\REPOS\PROJECT13\PROJECT13\TRAINER.CPP
